This is BibTeX, Version 0.99d (TeX Live 2018)
Capacity: max_strings=100000, hash_size=100000, hash_prime=85009
The top-level auxiliary file: thesis.aux
A level-1 auxiliary file: include/acknowledgements.aux
A level-1 auxiliary file: include/resumen.aux
A level-1 auxiliary file: include/abstract.aux
A level-1 auxiliary file: include/glossary.aux
The style file: plain.bst
Database file #1: bib/papers.bib
Warning--to sort, need author or key in jira
Warning--there's a number but no volume in nassif_2016
Warning--empty journal in cocomo_2
Warning--empty journal in rifkin2007notes
You've used 55 entries,
            2118 wiz_defined-function locations,
            804 strings with 13185 characters,
and the built_in function-call counts, 17541 in all, are:
= -- 1728
> -- 778
< -- 12
+ -- 317
- -- 254
* -- 1152
:= -- 2903
add.period$ -- 175
call.type$ -- 55
change.case$ -- 278
chr.to.int$ -- 0
cite$ -- 59
duplicate$ -- 672
empty$ -- 1424
format.name$ -- 254
if$ -- 3691
int.to.chr$ -- 0
int.to.str$ -- 55
missing$ -- 61
newline$ -- 284
num.names$ -- 108
pop$ -- 353
preamble$ -- 1
purify$ -- 236
quote$ -- 0
skip$ -- 467
stack$ -- 0
substring$ -- 1056
swap$ -- 130
text.length$ -- 12
text.prefix$ -- 0
top$ -- 0
type$ -- 194
warning$ -- 4
while$ -- 174
width$ -- 57
write$ -- 597
(There were 4 warnings)
