\relax 
\providecommand\hyper@newdestlabel[2]{}
\providecommand\HyperFirstAtBeginDocument{\AtBeginDocument}
\HyperFirstAtBeginDocument{\ifx\hyper@anchor\@undefined
\global\let\oldcontentsline\contentsline
\gdef\contentsline#1#2#3#4{\oldcontentsline{#1}{#2}{#3}}
\global\let\oldnewlabel\newlabel
\gdef\newlabel#1#2{\newlabelxx{#1}#2}
\gdef\newlabelxx#1#2#3#4#5#6{\oldnewlabel{#1}{{#2}{#3}}}
\AtEndDocument{\ifx\hyper@anchor\@undefined
\let\contentsline\oldcontentsline
\let\newlabel\oldnewlabel
\fi}
\fi}
\global\let\hyper@last\relax 
\gdef\HyperFirstAtBeginDocument#1{#1}
\providecommand\HyField@AuxAddToFields[1]{}
\providecommand\HyField@AuxAddToCoFields[2]{}
\catcode `"\active 
\catcode `<\active 
\catcode `>\active 
\@nameuse{es@quoting}
\babel@aux{spanish}{}
\babel@aux{spanish}{}
\@input{include/acknowledgements.aux}
\@input{include/resumen.aux}
\@input{include/abstract.aux}
\@writefile{toc}{\contentsline {chapter}{\IeC {\'I}ndice de Contenidos}{\es@scroman  {vi}}{chapter*.4}}
\@input{include/glossary.aux}
\citation{chaosreport}
\citation{boehm_1981}
\citation{POSPIESZNY2018184}
\citation{Trendowicz2014}
\citation{bakalova2011comparative}
\@writefile{toc}{\contentsline {chapter}{\numberline {1}Introducci\IeC {\'o}n}{1}{chapter.1}}
\@writefile{lof}{\addvspace {10\p@ }}
\@writefile{lot}{\addvspace {10\p@ }}
\@writefile{toc}{\contentsline {section}{\numberline {1.1}Objetivos}{2}{section.1.1}}
\@writefile{toc}{\contentsline {subsection}{\numberline {1.1.1}Objetivo general}{2}{subsection.1.1.1}}
\@writefile{toc}{\contentsline {subsection}{\numberline {1.1.2}Objetivos espec\IeC {\'\i }ficos}{2}{subsection.1.1.2}}
\citation{wirth2000crisp}
\@writefile{toc}{\contentsline {section}{\numberline {1.2}Metodolog\IeC {\'\i }a}{3}{section.1.2}}
\@writefile{toc}{\contentsline {section}{\numberline {1.3}Estructura de la memoria}{4}{section.1.3}}
\citation{POSPIESZNY2018184}
\citation{POSPIESZNY2018184}
\citation{chaosman}
\citation{POSPIESZNY2018184}
\citation{ralph_2015}
\@writefile{toc}{\contentsline {chapter}{\numberline {2}Problema y Contexto}{6}{chapter.2}}
\@writefile{lof}{\addvspace {10\p@ }}
\@writefile{lot}{\addvspace {10\p@ }}
\citation{agile_software_development}
\citation{mcilroy1968mass}
\citation{software_life_cycle_methods}
\citation{software_life_cycle_methods}
\citation{awad2005comparison}
\@writefile{toc}{\contentsline {chapter}{\numberline {3}Marco Te\IeC {\'o}rico}{9}{chapter.3}}
\@writefile{lof}{\addvspace {10\p@ }}
\@writefile{lot}{\addvspace {10\p@ }}
\@writefile{toc}{\contentsline {section}{\numberline {3.1}Metodolog\IeC {\'\i }as contempor\IeC {\'a}neas de desarrollo}{9}{section.3.1}}
\citation{balaji2012waterfall}
\citation{balaji2012waterfall}
\citation{balaji2012waterfall}
\@writefile{toc}{\contentsline {subsection}{\numberline {3.1.1}Modelo cl\IeC {\'a}sico}{10}{subsection.3.1.1}}
\citation{balaji2012waterfall}
\@writefile{lof}{\contentsline {figure}{\numberline {3.1}{\ignorespaces Modelo de ciclo de vida en cascada \cite  {balaji2012waterfall}.\relax }}{11}{figure.caption.6}}
\providecommand*\caption@xref[2]{\@setref\relax\@undefined{#1}}
\newlabel{slim_curve}{{3.1}{11}{Modelo de ciclo de vida en cascada \cite {balaji2012waterfall}.\relax }{figure.caption.6}{}}
\citation{balaji2012waterfall}
\citation{balaji2012waterfall}
\citation{agile_manifesto}
\citation{agile_software_development}
\@writefile{toc}{\contentsline {subsection}{\numberline {3.1.2}Modelo \IeC {\'a}gil}{12}{subsection.3.1.2}}
\@writefile{lof}{\contentsline {figure}{\numberline {3.2}{\ignorespaces Modelo de ciclo de vida \IeC {\'A}gil \cite  {balaji2012waterfall}.\relax }}{12}{figure.caption.7}}
\newlabel{slim_curve}{{3.2}{12}{Modelo de ciclo de vida Ágil \cite {balaji2012waterfall}.\relax }{figure.caption.7}{}}
\citation{POSPIESZNY2018184}
\citation{chaosman}
\citation{chaosreport}
\citation{mitchell1997machine}
\newlabel{section-machine-learning}{{3.2}{13}{Máquinas de aprendizaje}{section.3.2}{}}
\@writefile{toc}{\contentsline {section}{\numberline {3.2}M\IeC {\'a}quinas de aprendizaje }{13}{section.3.2}}
\citation{goodfellow2016deep}
\@writefile{toc}{\contentsline {subsection}{\numberline {3.2.1}Entrenamiento}{15}{subsection.3.2.1}}
\newlabel{cross-val}{{3.2.1}{15}{\textit {Cross-Validation}}{section*.8}{}}
\@writefile{toc}{\contentsline {subsubsection}{\textit  {Cross-Validation} }{15}{section*.8}}
\@writefile{toc}{\contentsline {subsection}{\numberline {3.2.2}\textit  {Overfitting} y \textit  {underfitting}}{16}{subsection.3.2.2}}
\@writefile{toc}{\contentsline {subsection}{\numberline {3.2.3}Sesgo versus varianza}{16}{subsection.3.2.3}}
\@writefile{toc}{\contentsline {subsection}{\numberline {3.2.4}Maldici\IeC {\'o}n de la dimensionalidad}{17}{subsection.3.2.4}}
\@writefile{lof}{\contentsline {figure}{\numberline {3.3}{\ignorespaces La imagen representa la velocidad con que aumenta el volumen de un espacio cuando aumentan la dimensionalidad. Se puede visualizar el cambio cuando la dimensi\IeC {\'o}n es compuesta por el eje $x$, para luego componerse por los ejes $y$ y $z$.\relax }}{18}{figure.caption.9}}
\newlabel{curse_volume}{{3.3}{18}{La imagen representa la velocidad con que aumenta el volumen de un espacio cuando aumentan la dimensionalidad. Se puede visualizar el cambio cuando la dimensión es compuesta por el eje $x$, para luego componerse por los ejes $y$ y $z$.\relax }{figure.caption.9}{}}
\newlabel{section_regularization}{{3.2.5}{18}{Regularización}{subsection.3.2.5}{}}
\@writefile{toc}{\contentsline {subsection}{\numberline {3.2.5}Regularizaci\IeC {\'o}n }{18}{subsection.3.2.5}}
\citation{zheng2018feature}
\citation{zheng2018feature}
\@writefile{toc}{\contentsline {section}{\numberline {3.3}Ingenier\IeC {\'\i }a de atributos}{19}{section.3.3}}
\@writefile{lof}{\contentsline {figure}{\numberline {3.4}{\ignorespaces Lugar de la ingenier\IeC {\'\i }a de atributos en un flujo com\IeC {\'u}n de aprendizaje autom\IeC {\'a}tico \cite  {zheng2018feature}.\relax }}{19}{figure.caption.10}}
\newlabel{feature_engineering_place}{{3.4}{19}{Lugar de la ingeniería de atributos en un flujo común de aprendizaje automático \cite {zheng2018feature}.\relax }{figure.caption.10}{}}
\citation{zheng2018feature}
\citation{bishop2006pattern}
\@writefile{toc}{\contentsline {subsection}{\numberline {3.3.1}Transformaci\IeC {\'o}n de atributos}{20}{subsection.3.3.1}}
\@writefile{toc}{\contentsline {subsubsection}{Datos num\IeC {\'e}ricos}{20}{section*.11}}
\citation{johnston1972econometric}
\citation{kuhn2013applied}
\@writefile{toc}{\contentsline {subsubsection}{Datos categ\IeC {\'o}ricos}{21}{section*.12}}
\@writefile{toc}{\contentsline {subsubsection}{Normalizaci\IeC {\'o}n de atributos}{22}{section*.13}}
\citation{kuhn2013applied}
\citation{kuhn2013applied}
\citation{kuhn2013applied}
\@writefile{toc}{\contentsline {subsection}{\numberline {3.3.2}Selecci\IeC {\'o}n de atributos}{23}{subsection.3.3.2}}
\citation{kuhn2013applied}
\@writefile{lof}{\contentsline {figure}{\numberline {3.5}{\ignorespaces Comportamiento del error cuando aumenta la cantidad de atributos que no aportan informaci\IeC {\'o}n a las predicciones \cite  {kuhn2013applied}. Es importante notar que la dimensi\IeC {\'o}n no afecta en gran medida a algoritmos basados en \IeC {\'a}rboles.\relax }}{24}{figure.caption.14}}
\newlabel{non-informative-predictors}{{3.5}{24}{Comportamiento del error cuando aumenta la cantidad de atributos que no aportan información a las predicciones \cite {kuhn2013applied}. Es importante notar que la dimensión no afecta en gran medida a algoritmos basados en árboles.\relax }{figure.caption.14}{}}
\@writefile{toc}{\contentsline {subsubsection}{M\IeC {\'e}todos envolventes}{24}{section*.15}}
\citation{kuhn2013applied}
\citation{kuhn2013applied}
\citation{kuhn2013applied}
\@writefile{lof}{\contentsline {figure}{\numberline {3.6}{\ignorespaces Algoritmo de Classical forward selection \cite  {kuhn2013applied}.\relax }}{25}{figure.caption.16}}
\newlabel{non-informative-predictors}{{3.6}{25}{Algoritmo de Classical forward selection \cite {kuhn2013applied}.\relax }{figure.caption.16}{}}
\citation{kuhn2013applied}
\citation{zheng2018feature}
\@writefile{toc}{\contentsline {subsubsection}{M\IeC {\'e}todos de filtrado}{26}{section*.17}}
\@writefile{toc}{\contentsline {subsubsection}{M\IeC {\'e}todos incrustados}{26}{section*.18}}
\citation{bishop2006pattern}
\@writefile{toc}{\contentsline {subsection}{\numberline {3.3.3}\textit  {Principal Component Analysis} (PCA)}{27}{subsection.3.3.3}}
\@writefile{toc}{\contentsline {section}{\numberline {3.4}Modelos lineales de regresi\IeC {\'o}n}{28}{section.3.4}}
\newlabel{seccion_modelos_de_regresion}{{3.4}{28}{Modelos lineales de regresión}{section.3.4}{}}
\citation{rifkin2007notes}
\@writefile{lof}{\contentsline {figure}{\numberline {3.7}{\ignorespaces Ejemplo visual del objetivo de una regresi\IeC {\'o}n de \IeC {\'\i }ndole lineal.\relax }}{29}{figure.caption.19}}
\newlabel{slim_curve}{{3.7}{29}{Ejemplo visual del objetivo de una regresión de índole lineal.\relax }{figure.caption.19}{}}
\@writefile{toc}{\contentsline {subsection}{\numberline {3.4.1}M\IeC {\'\i }nimos cuadrados ordinarios}{29}{subsection.3.4.1}}
\newlabel{least_squares_eq}{{3.12}{29}{Mínimos cuadrados ordinarios}{equation.3.4.12}{}}
\newlabel{ridge_eq}{{3.13}{29}{Mínimos cuadrados ordinarios}{equation.3.4.13}{}}
\citation{friedman2010regularization}
\@writefile{toc}{\contentsline {subsection}{\numberline {3.4.2}Lasso}{30}{subsection.3.4.2}}
\@writefile{toc}{\contentsline {section}{\numberline {3.5}Modelos no lineales de regresi\IeC {\'o}n}{30}{section.3.5}}
\@writefile{toc}{\contentsline {subsection}{\numberline {3.5.1}M\IeC {\'a}quinas de soporte}{30}{subsection.3.5.1}}
\citation{bishop2006pattern}
\citation{bishop2006pattern}
\citation{bishop2006pattern}
\citation{bishop2006pattern}
\@writefile{lof}{\contentsline {figure}{\numberline {3.8}{\ignorespaces  El margen corresponde a la distancia entre el hiperplano de decisi\IeC {\'o}n en color rojo el hiperplano azul que pasa por el vector de soporte de las clases \cite  {bishop2006pattern}.\relax }}{32}{figure.caption.20}}
\@writefile{lof}{\contentsline {figure}{\numberline {3.9}{\ignorespaces Los vectores de soporte encerrados por un c\IeC {\'\i }rculo morado son utilizados para definir el margen \cite  {bishop2006pattern}.\relax }}{32}{figure.caption.20}}
\newlabel{svm_notion}{{\caption@xref {svm_notion}{ on input line 301}}{32}{Máquinas de soporte}{figure.caption.20}{}}
\newlabel{svm_linear}{{3.15}{32}{Máquinas de soporte}{equation.3.5.15}{}}
\citation{svm_article}
\citation{svm_article}
\newlabel{svm_kernel_ec}{{3.17}{33}{Máquinas de soporte}{equation.3.5.17}{}}
\@writefile{lof}{\contentsline {figure}{\numberline {3.10}{\ignorespaces Noci\IeC {\'o}n de la transformaci\IeC {\'o}n que realiza un m\IeC {\'e}todo de kernel. Notar que en la izquierda se tienen datos que no son linealmente separables, y se llevan a un nuevo espacio en donde si lo son \cite  {svm_article}.\relax }}{33}{figure.caption.21}}
\newlabel{svm_kernel}{{3.10}{33}{Noción de la transformación que realiza un método de kernel. Notar que en la izquierda se tienen datos que no son linealmente separables, y se llevan a un nuevo espacio en donde si lo son \cite {svm_article}.\relax }{figure.caption.21}{}}
\citation{svm_article}
\citation{svm_article}
\@writefile{lof}{\contentsline {figure}{\numberline {3.11}{\ignorespaces Definici\IeC {\'o}n del margen en SVR. Las l\IeC {\'\i }neas punteadas definen los hiperplanos paralelos al hiperplano de decisi\IeC {\'o}n s\IeC {\'o}lido y son calculados seg\IeC {\'u}n los vectores de soporte que se utilizan \cite  {svm_article}.\relax }}{34}{figure.caption.22}}
\newlabel{svr_margin}{{3.11}{34}{Definición del margen en SVR. Las líneas punteadas definen los hiperplanos paralelos al hiperplano de decisión sólido y son calculados según los vectores de soporte que se utilizan \cite {svm_article}.\relax }{figure.caption.22}{}}
\citation{james2013introduction}
\citation{james2013introduction}
\citation{james2013introduction}
\citation{james2013introduction}
\newlabel{section_decision_trees}{{3.5.2}{35}{Árboles de regresión}{subsection.3.5.2}{}}
\@writefile{toc}{\contentsline {subsection}{\numberline {3.5.2}\IeC {\'A}rboles de regresi\IeC {\'o}n }{35}{subsection.3.5.2}}
\@writefile{lof}{\contentsline {figure}{\numberline {3.12}{\ignorespaces Visualizaci\IeC {\'o}n de las divisiones realizadas por un modelo de \IeC {\'a}rboles de decisi\IeC {\'o}n en un conjunto de datos de dimensi\IeC {\'o}n 2 y con atributos $X_1$ y $X_2$. $t_n$ corresponden a los valores pivote en donde se realiza una partici\IeC {\'o}n, y $R_n$ a las regiones que son generadas \cite  {james2013introduction}.\relax }}{35}{figure.caption.23}}
\newlabel{space_divided_by_tree}{{3.12}{35}{Visualización de las divisiones realizadas por un modelo de árboles de decisión en un conjunto de datos de dimensión 2 y con atributos $X_1$ y $X_2$. $t_n$ corresponden a los valores pivote en donde se realiza una partición, y $R_n$ a las regiones que son generadas \cite {james2013introduction}.\relax }{figure.caption.23}{}}
\@writefile{lof}{\contentsline {figure}{\numberline {3.13}{\ignorespaces Visualizaci\IeC {\'o}n del \IeC {\'a}rbol de decisi\IeC {\'o}n generando al particionar el conjunto de datos \cite  {james2013introduction}.\relax }}{36}{figure.caption.24}}
\newlabel{space_divided_by_tree_divisions}{{3.13}{36}{Visualización del árbol de decisión generando al particionar el conjunto de datos \cite {james2013introduction}.\relax }{figure.caption.24}{}}
\citation{james2013introduction}
\citation{james2013introduction}
\@writefile{lof}{\contentsline {figure}{\numberline {3.14}{\ignorespaces Comparaci\IeC {\'o}n visual del rendimiento entre \IeC {\'a}rboles de decisi\IeC {\'o}n y una regresi\IeC {\'o}n en un problema de clasificaci\IeC {\'o}n. En las 2 figuras superiores se ejemplifica la clasificaci\IeC {\'o}n en un dominio lineal, y en las inferiores en un dominio no lineal. A la izquierda se encuentra la divisi\IeC {\'o}n realizada por la regresi\IeC {\'o}n, y a la derecha la realizada por el \IeC {\'a}rbol de decisi\IeC {\'o}n \cite  {james2013introduction}.\relax }}{38}{figure.caption.25}}
\newlabel{tree_vs_linear_regression}{{3.14}{38}{Comparación visual del rendimiento entre árboles de decisión y una regresión en un problema de clasificación. En las 2 figuras superiores se ejemplifica la clasificación en un dominio lineal, y en las inferiores en un dominio no lineal. A la izquierda se encuentra la división realizada por la regresión, y a la derecha la realizada por el árbol de decisión \cite {james2013introduction}.\relax }{figure.caption.25}{}}
\@writefile{toc}{\contentsline {section}{\numberline {3.6}Optimizaci\IeC {\'o}n de modelos}{38}{section.3.6}}
\@writefile{toc}{\contentsline {subsection}{\numberline {3.6.1}Tuneo de hiperpar\IeC {\'a}metros}{39}{subsection.3.6.1}}
\@writefile{lof}{\contentsline {figure}{\numberline {3.15}{\ignorespaces Ejemplo de investigaci\IeC {\'o}n del comportamiento del error de una m\IeC {\'a}quina de soporte de clasificaci\IeC {\'o}n a medida que cambia el valor del hiperpar\IeC {\'a}metro $C$.\relax }}{40}{figure.caption.26}}
\newlabel{parameter_tunning_example}{{3.15}{40}{Ejemplo de investigación del comportamiento del error de una máquina de soporte de clasificación a medida que cambia el valor del hiperparámetro $C$.\relax }{figure.caption.26}{}}
\@writefile{toc}{\contentsline {subsection}{\numberline {3.6.2}M\IeC {\'e}todos de ensamblaje}{40}{subsection.3.6.2}}
\citation{bad_bagging}
\citation{bad_bagging}
\@writefile{toc}{\contentsline {subsubsection}{\textit  {Bagging}}{41}{section*.27}}
\citation{random_forest}
\citation{random_forest}
\@writefile{lof}{\contentsline {figure}{\numberline {3.16}{\ignorespaces Demostraci\IeC {\'o}n gr\IeC {\'a}fica de los problemas comunes que tiene bagging. En rojo se pueden apreciar las \IeC {\'a}reas en las que cada instancia del modelo no realiza buenas predicciones en el espacio de atributos. En este caso, y para ejemplificar, se tienen 3 instancias distintas. En la figura de la izquierda, si el espacio de atributos cae en la zona roja de la instancia $A$, las instancias $B$ y $C$ podr\IeC {\'a}n de igual manera estimar correctamente y mitigar el mal resultado de $A$. En otro espacio de atributos con una zona de mala predicci\IeC {\'o}n m\IeC {\'a}s densa, se tiene que bagging no lograr\IeC {\'a} mejorar el error, ya que todos las instancias estar\IeC {\'a}n igual de equivocadas \cite  {bad_bagging}.\relax }}{42}{figure.caption.28}}
\newlabel{bad_bagging}{{3.16}{42}{Demostración gráfica de los problemas comunes que tiene bagging. En rojo se pueden apreciar las áreas en las que cada instancia del modelo no realiza buenas predicciones en el espacio de atributos. En este caso, y para ejemplificar, se tienen 3 instancias distintas. En la figura de la izquierda, si el espacio de atributos cae en la zona roja de la instancia $A$, las instancias $B$ y $C$ podrán de igual manera estimar correctamente y mitigar el mal resultado de $A$. En otro espacio de atributos con una zona de mala predicción más densa, se tiene que bagging no logrará mejorar el error, ya que todos las instancias estarán igual de equivocadas \cite {bad_bagging}.\relax }{figure.caption.28}{}}
\@writefile{toc}{\contentsline {subsubsection}{\textit  {Random forest}}{42}{section*.29}}
\@writefile{lof}{\contentsline {figure}{\numberline {3.17}{\ignorespaces Estructura general de random forest ejemplificado en un problema de clasificaci\IeC {\'o}n binario \cite  {random_forest}.\relax }}{43}{figure.caption.30}}
\newlabel{random_forest}{{3.17}{43}{Estructura general de random forest ejemplificado en un problema de clasificación binario \cite {random_forest}.\relax }{figure.caption.30}{}}
\@writefile{toc}{\contentsline {subsubsection}{\textit  {AdaBoost}}{43}{section*.31}}
\citation{heidenreich2013bandwidth}
\@writefile{lof}{\contentsline {figure}{\numberline {3.18}{\ignorespaces Esquema gr\IeC {\'a}fico que contiene el proceso de AdaBoost.\relax }}{44}{figure.caption.32}}
\newlabel{adaboost}{{3.18}{44}{Esquema gráfico que contiene el proceso de AdaBoost.\relax }{figure.caption.32}{}}
\@writefile{toc}{\contentsline {subsubsection}{\textit  {Gradient Boosting}}{44}{section*.33}}
\newlabel{chapter_kernel}{{3.7}{45}{Estimación de distribución por método de kernel}{section.3.7}{}}
\@writefile{toc}{\contentsline {section}{\numberline {3.7}Estimaci\IeC {\'o}n de distribuci\IeC {\'o}n por m\IeC {\'e}todo de kernel }{45}{section.3.7}}
\@writefile{lof}{\contentsline {figure}{\numberline {3.19}{\ignorespaces Histograma del precio de las casas en Boston, proveniente del dataset \textit  {Boston Housing-Price}.\relax }}{45}{figure.caption.34}}
\newlabel{histogram}{{3.19}{45}{Histograma del precio de las casas en Boston, proveniente del dataset \textit {Boston Housing-Price}.\relax }{figure.caption.34}{}}
\citation{heidenreich2013bandwidth}
\citation{boehm_1981}
\citation{ALAMI201662}
\citation{chaosreport}
\citation{de2015project}
\citation{ALAMI201662}
\@writefile{toc}{\contentsline {chapter}{\numberline {4}Estado del Arte}{47}{chapter.4}}
\@writefile{lof}{\addvspace {10\p@ }}
\@writefile{lot}{\addvspace {10\p@ }}
\@writefile{toc}{\contentsline {section}{\numberline {4.1}M\IeC {\'e}todos de estimaci\IeC {\'o}n de esfuerzo}{47}{section.4.1}}
\citation{jorgensen_2007}
\citation{lazarevic2014project}
\citation{delphi_technique}
\@writefile{toc}{\contentsline {subsection}{\numberline {4.1.1}Estimaci\IeC {\'o}n por evaluaci\IeC {\'o}n experta}{48}{subsection.4.1.1}}
\citation{pert_technique}
\citation{agile_manifesto}
\citation{planning_poker_paper}
\citation{planning_poker_paper}
\citation{wysocki2011effective}
\citation{planning_poker_paper}
\citation{kolodner2014case}
\@writefile{lof}{\contentsline {figure}{\numberline {4.1}{\ignorespaces Ejemplo visual de cartas utilizadas en una sesi\IeC {\'o}n de Planning Poker.\relax }}{50}{figure.caption.35}}
\newlabel{planning_poker_cards}{{4.1}{50}{Ejemplo visual de cartas utilizadas en una sesión de Planning Poker.\relax }{figure.caption.35}{}}
\citation{ezghari2018uncertainty}
\citation{POSPIESZNY2018184}
\citation{boehm_1981}
\@writefile{toc}{\contentsline {subsection}{\numberline {4.1.2}Estimaci\IeC {\'o}n basada en analog\IeC {\'\i }as}{51}{subsection.4.1.2}}
\@writefile{toc}{\contentsline {subsection}{\numberline {4.1.3}Modelos param\IeC {\'e}tricos}{51}{subsection.4.1.3}}
\@writefile{toc}{\contentsline {subsubsection}{COCOMO}{52}{section*.36}}
\citation{boehm_1981}
\citation{boehm_1981}
\citation{toka2013accuracy}
\@writefile{lot}{\contentsline {table}{\numberline {4.1}{\ignorespaces Valores para las constantes de COCOMO seg\IeC {\'u}n el tipo de proyecto \cite  {boehm_1981}.\relax }}{53}{table.caption.37}}
\newlabel{constant_definition}{{4.1}{53}{Valores para las constantes de COCOMO según el tipo de proyecto \cite {boehm_1981}.\relax }{table.caption.37}{}}
\citation{cocomo_2}
\citation{cocomo_2}
\@writefile{lot}{\contentsline {table}{\numberline {4.2}{\ignorespaces Valores de los atributos que afectan a COCOMO II. Estos valores han sido calibrados seg\IeC {\'u}n observaciones de la industria al momento de proponer al iteraci\IeC {\'o}n del m\IeC {\'e}todo \cite  {cocomo_2}. Aquellas \IeC {\'a}reas que no tienen valores no poseen una calibraci\IeC {\'o}n testeada.\relax }}{55}{table.caption.38}}
\newlabel{cocomo_ii_attributes}{{4.2}{55}{Valores de los atributos que afectan a COCOMO II. Estos valores han sido calibrados según observaciones de la industria al momento de proponer al iteración del método \cite {cocomo_2}. Aquellas áreas que no tienen valores no poseen una calibración testeada.\relax }{table.caption.38}{}}
\citation{cocomo_2}
\citation{cocomo_2}
\@writefile{toc}{\contentsline {subsubsection}{SLIM}{56}{section*.39}}
\@writefile{lof}{\contentsline {figure}{\numberline {4.2}{\ignorespaces Distribuci\IeC {\'o}n de Rayleigh obtenido ajustando los par\IeC {\'a}metros $K = 1.0$, $a = 0.02$ y $t_d = 0.18$ \cite  {cocomo_2}.\relax }}{56}{figure.caption.40}}
\newlabel{slim_curve}{{4.2}{56}{Distribución de Rayleigh obtenido ajustando los parámetros $K = 1.0$, $a = 0.02$ y $t_d = 0.18$ \cite {cocomo_2}.\relax }{figure.caption.40}{}}
\citation{POSPIESZNY2018184}
\citation{agile_software_development}
\@writefile{toc}{\contentsline {subsubsection}{SEER-SEM}{57}{section*.41}}
\citation{ezghari2018uncertainty}
\citation{WEN201241}
\citation{lopez2012software}
\citation{POSPIESZNY2018184}
\@writefile{toc}{\contentsline {subsection}{\numberline {4.1.4}Aprendizaje autom\IeC {\'a}tico}{58}{subsection.4.1.4}}
\citation{WEN201241}
\citation{nassif_2016}
\citation{POSPIESZNY2018184}
\citation{minku2013ensembles}
\citation{azhar2013using}
\citation{shepperd_2007}
\citation{shepperd_2012}
\citation{morera_2017}
\citation{POSPIESZNY2018184}
\citation{POSPIESZNY2018184}
\citation{POSPIESZNY2018184}
\citation{agile_software_development}
\citation{newman2015building}
\@writefile{lof}{\contentsline {figure}{\numberline {4.3}{\ignorespaces Cuadro comparativo entre distintos modelos de aprendizaje autom\IeC {\'a}tico \cite  {POSPIESZNY2018184}.\relax }}{61}{figure.caption.42}}
\newlabel{ml_models}{{4.3}{61}{Cuadro comparativo entre distintos modelos de aprendizaje automático \cite {POSPIESZNY2018184}.\relax }{figure.caption.42}{}}
\@writefile{toc}{\contentsline {section}{\numberline {4.2}Caracter\IeC {\'\i }sticas utilizadas para la estimaci\IeC {\'o}n}{61}{section.4.2}}
\citation{cocomo_2}
\citation{fernandez2014potential}
\citation{POSPIESZNY2018184}
\citation{nassif_2016}
\citation{WEN201241}
\citation{fernandez2014potential}
\citation{pred25}
\@writefile{toc}{\contentsline {section}{\numberline {4.3}M\IeC {\'e}tricas de rendimiento}{63}{section.4.3}}
\@writefile{toc}{\contentsline {chapter}{\numberline {5}Soluci\IeC {\'o}n Propuesta}{65}{chapter.5}}
\@writefile{lof}{\addvspace {10\p@ }}
\@writefile{lot}{\addvspace {10\p@ }}
\@writefile{lof}{\contentsline {figure}{\numberline {5.1}{\ignorespaces Definici\IeC {\'o}n general del \textit  {framework} propuesto.\relax }}{66}{figure.caption.43}}
\newlabel{framework_diagram}{{5.1}{66}{Definición general del \textit {framework} propuesto.\relax }{figure.caption.43}{}}
\@writefile{lof}{\contentsline {figure}{\numberline {5.2}{\ignorespaces Actividades de soporte principales realizadas para la definici\IeC {\'o}n del \textit  {framework}.\relax }}{67}{figure.caption.44}}
\newlabel{supporting_framework_activites}{{5.2}{67}{Actividades de soporte principales realizadas para la definición del \textit {framework}.\relax }{figure.caption.44}{}}
\@writefile{toc}{\contentsline {section}{\numberline {5.1}Etapa de pre-procesamiento}{67}{section.5.1}}
\citation{jira}
\newlabel{subsec_attributo_analysis}{{5.1.1}{68}{Análisis de atributos}{subsection.5.1.1}{}}
\@writefile{toc}{\contentsline {subsection}{\numberline {5.1.1}An\IeC {\'a}lisis de atributos }{68}{subsection.5.1.1}}
\@writefile{toc}{\contentsline {subsubsection}{Atributos en bruto}{68}{section*.45}}
\@writefile{lof}{\contentsline {figure}{\numberline {5.3}{\ignorespaces Listado de roles entre los cuales es posible distribuir esfuerzo.\relax }}{70}{figure.caption.46}}
\newlabel{role_list}{{5.3}{70}{Listado de roles entre los cuales es posible distribuir esfuerzo.\relax }{figure.caption.46}{}}
\@writefile{lof}{\contentsline {figure}{\numberline {5.4}{\ignorespaces Diferencia entre la calidad de la descripci\IeC {\'o}n de las historias de usuario. A la izquierda se puede observar una descripci\IeC {\'o}n peque\IeC {\~n}a y sin mucha cantidad de informaci\IeC {\'o}n, y a la derecha una descripci\IeC {\'o}n m\IeC {\'a}s extensa que contiene muchos m\IeC {\'a}s detalles gracias a la utilizaci\IeC {\'o}n del lenguaje de redacci\IeC {\'o}n \textit  {markdown}.\relax }}{71}{figure.caption.47}}
\newlabel{description_difference}{{5.4}{71}{Diferencia entre la calidad de la descripción de las historias de usuario. A la izquierda se puede observar una descripción pequeña y sin mucha cantidad de información, y a la derecha una descripción más extensa que contiene muchos más detalles gracias a la utilización del lenguaje de redacción \textit {markdown}.\relax }{figure.caption.47}{}}
\citation{fowler2018refactoring}
\@writefile{toc}{\contentsline {subsubsection}{Atributos propuestos}{72}{section*.48}}
\citation{ziauddin2012effort}
\citation{garofalo2011building}
\@writefile{toc}{\contentsline {subsection}{\numberline {5.1.2}Agregaci\IeC {\'o}n de atributos}{75}{subsection.5.1.2}}
\@writefile{lof}{\contentsline {figure}{\numberline {5.5}{\ignorespaces Arquitectura utilizada para la implementaci\IeC {\'o}n de la plataforma de agregaci\IeC {\'o}n de atributos (MVVM).\relax }}{76}{figure.caption.49}}
\newlabel{platform_arquitecture}{{5.5}{76}{Arquitectura utilizada para la implementación de la plataforma de agregación de atributos (MVVM).\relax }{figure.caption.49}{}}
\@writefile{lof}{\contentsline {figure}{\numberline {5.6}{\ignorespaces Informaci\IeC {\'o}n resumida de cada proyecto en el dashboard inicial.\relax }}{77}{figure.caption.50}}
\newlabel{platform_home}{{5.6}{77}{Información resumida de cada proyecto en el dashboard inicial.\relax }{figure.caption.50}{}}
\@writefile{lof}{\contentsline {figure}{\numberline {5.7}{\ignorespaces Vista de un proyecto particular en la plataforma de agregaci\IeC {\'o}n.\relax }}{77}{figure.caption.51}}
\newlabel{role_list}{{5.7}{77}{Vista de un proyecto particular en la plataforma de agregación.\relax }{figure.caption.51}{}}
\@writefile{lof}{\contentsline {figure}{\numberline {5.8}{\ignorespaces Listado de historias de usuario de un proyecto en donde se registra esfuerzo.\relax }}{78}{figure.caption.52}}
\newlabel{platform_us_list}{{5.8}{78}{Listado de historias de usuario de un proyecto en donde se registra esfuerzo.\relax }{figure.caption.52}{}}
\@writefile{lof}{\contentsline {figure}{\numberline {5.9}{\ignorespaces Formulario de atributos de una historias de usuario en particular.\relax }}{78}{figure.caption.53}}
\newlabel{platform_us_tags}{{5.9}{78}{Formulario de atributos de una historias de usuario en particular.\relax }{figure.caption.53}{}}
\newlabel{set_keep_in_mind}{{5.1.3}{79}{Definición de conjuntos}{subsection.5.1.3}{}}
\@writefile{toc}{\contentsline {subsection}{\numberline {5.1.3}Definici\IeC {\'o}n de conjuntos }{79}{subsection.5.1.3}}
\@writefile{lof}{\contentsline {figure}{\numberline {5.10}{\ignorespaces Ejemplo de la definici\IeC {\'o}n del conjunto de entrenamiento y de pruebas. Para estimar el proyecto $P_3$, se deben considerar todas las historias que esten completas antes del tiempo $t_1$, siendo este conjunto $U_{train} = \{U_1, \cdots  , U_n, U_1, U_2, \cdots  , U_{p-1}\}$, mientras que el conjunto de pruebas corresponde a la historias de usuario del proyecto $P_3$, correspondiente a $U_{test} = \{U_1, \cdots  , U_q\}$.\relax }}{79}{figure.caption.54}}
\newlabel{dataset_definition}{{5.10}{79}{Ejemplo de la definición del conjunto de entrenamiento y de pruebas. Para estimar el proyecto $P_3$, se deben considerar todas las historias que esten completas antes del tiempo $t_1$, siendo este conjunto $U_{train} = \{U_1, \cdots , U_n, U_1, U_2, \cdots , U_{p-1}\}$, mientras que el conjunto de pruebas corresponde a la historias de usuario del proyecto $P_3$, correspondiente a $U_{test} = \{U_1, \cdots , U_q\}$.\relax }{figure.caption.54}{}}
\@writefile{toc}{\contentsline {subsection}{\numberline {5.1.4}Normalizaci\IeC {\'o}n y filtrado}{80}{subsection.5.1.4}}
\@writefile{toc}{\contentsline {section}{\numberline {5.2}Etapa de selecci\IeC {\'o}n}{81}{section.5.2}}
\@writefile{toc}{\contentsline {subsection}{\numberline {5.2.1}Selecci\IeC {\'o}n de hiperpar\IeC {\'a}metros}{81}{subsection.5.2.1}}
\citation{bro2008cross}
\@writefile{lof}{\contentsline {figure}{\numberline {5.11}{\ignorespaces Diagrama que describe el proceso de selecci\IeC {\'o}n de atributos.\relax }}{82}{figure.caption.55}}
\newlabel{framework_diagram}{{5.11}{82}{Diagrama que describe el proceso de selección de atributos.\relax }{figure.caption.55}{}}
\@writefile{toc}{\contentsline {subsection}{\numberline {5.2.2}Selecci\IeC {\'o}n de modelos}{82}{subsection.5.2.2}}
\@writefile{toc}{\contentsline {subsection}{\numberline {5.2.3}Modelos propuestos}{83}{subsection.5.2.3}}
\@writefile{lot}{\contentsline {table}{\numberline {5.1}{\ignorespaces Distintas configuraciones de hiperpar\IeC {\'a}metros utilizadas.\relax }}{85}{table.caption.56}}
\citation{heidenreich2013bandwidth}
\@writefile{toc}{\contentsline {section}{\numberline {5.3}Etapa de pron\IeC {\'o}stico}{86}{section.5.3}}
\@writefile{toc}{\contentsline {subsection}{\numberline {5.3.1}Distribuci\IeC {\'o}n del valor esperado del estimador}{86}{subsection.5.3.1}}
\@writefile{toc}{\contentsline {chapter}{\numberline {6}Validaci\IeC {\'o}n y Resultados}{87}{chapter.6}}
\@writefile{lof}{\addvspace {10\p@ }}
\@writefile{lot}{\addvspace {10\p@ }}
\@writefile{toc}{\contentsline {section}{\numberline {6.1}Importancia de los atributos}{88}{section.6.1}}
\@writefile{lof}{\contentsline {figure}{\numberline {6.1}{\ignorespaces Importancia de atributos por proyecto\relax }}{88}{figure.caption.57}}
\newlabel{res4}{{6.1}{88}{Importancia de atributos por proyecto\relax }{figure.caption.57}{}}
\@writefile{lof}{\contentsline {figure}{\numberline {6.2}{\ignorespaces Importancia general de los atributos\relax }}{89}{figure.caption.58}}
\newlabel{res6}{{6.2}{89}{Importancia general de los atributos\relax }{figure.caption.58}{}}
\@writefile{lof}{\contentsline {figure}{\numberline {6.3}{\ignorespaces Importancia de atributos por proyecto, sin considerar el puntaje asignado por el comit\IeC {\'e}\relax }}{90}{figure.caption.59}}
\newlabel{res5}{{6.3}{90}{Importancia de atributos por proyecto, sin considerar el puntaje asignado por el comité\relax }{figure.caption.59}{}}
\@writefile{lof}{\contentsline {figure}{\numberline {6.4}{\ignorespaces Importancia general de los atributos, sin considerar el puntaje asignado por el comit\IeC {\'e}\relax }}{91}{figure.caption.60}}
\newlabel{res7}{{6.4}{91}{Importancia general de los atributos, sin considerar el puntaje asignado por el comité\relax }{figure.caption.60}{}}
\@writefile{lof}{\contentsline {figure}{\numberline {6.5}{\ignorespaces Importancia de atributos al pronosticar solo con los atributos propuestos, desagregado por proyecto\relax }}{92}{figure.caption.61}}
\newlabel{res_tags_only_heatmap}{{6.5}{92}{Importancia de atributos al pronosticar solo con los atributos propuestos, desagregado por proyecto\relax }{figure.caption.61}{}}
\@writefile{lof}{\contentsline {figure}{\numberline {6.6}{\ignorespaces Importancia promedio de atributos al pronosticar solo con los atributos propuestos\relax }}{93}{figure.caption.62}}
\newlabel{res_tags_only_bar}{{6.6}{93}{Importancia promedio de atributos al pronosticar solo con los atributos propuestos\relax }{figure.caption.62}{}}
\@writefile{toc}{\contentsline {section}{\numberline {6.2}Rendimiento de la soluci\IeC {\'o}n}{93}{section.6.2}}
\@writefile{toc}{\contentsline {subsection}{\numberline {6.2.1}Comportamiento de selecci\IeC {\'o}n de modelos}{94}{subsection.6.2.1}}
\@writefile{lof}{\contentsline {figure}{\numberline {6.7}{\ignorespaces Frecuencia de selecci\IeC {\'o}n de los modelos pro proyecto\relax }}{94}{figure.caption.63}}
\newlabel{res2}{{6.7}{94}{Frecuencia de selección de los modelos pro proyecto\relax }{figure.caption.63}{}}
\@writefile{lof}{\contentsline {figure}{\numberline {6.8}{\ignorespaces Frecuencia de selecci\IeC {\'o}n general de los modelos\relax }}{95}{figure.caption.64}}
\newlabel{res3}{{6.8}{95}{Frecuencia de selección general de los modelos\relax }{figure.caption.64}{}}
\@writefile{toc}{\contentsline {subsection}{\numberline {6.2.2}Rendimiento del framework seg\IeC {\'u}n atributos utilizados}{95}{subsection.6.2.2}}
\@writefile{lof}{\contentsline {figure}{\numberline {6.9}{\ignorespaces Comparaci\IeC {\'o}n de rendimiento entre conjunto de atributos utilizados para el pron\IeC {\'o}stico. A la izquierda est\IeC {\'a} el rendimiento al utilizar solo los atributos base, al centro solo los atributos propuestos y a la derecha la combinaci\IeC {\'o}n. El eje $Y$ corresponde al $MRE$ promedio entre todas las iteraciones de los proyectos pronosticados, por tanto, mientras m\IeC {\'a}s alto es peor. La l\IeC {\'\i }nea roja que se puede observar es el limite de $MRE = 25\%$ que es utilizado por la m\IeC {\'e}trica de $PRED(25)$\relax }}{96}{figure.caption.65}}
\newlabel{res_compare_all3}{{6.9}{96}{Comparación de rendimiento entre conjunto de atributos utilizados para el pronóstico. A la izquierda está el rendimiento al utilizar solo los atributos base, al centro solo los atributos propuestos y a la derecha la combinación. El eje $Y$ corresponde al $MRE$ promedio entre todas las iteraciones de los proyectos pronosticados, por tanto, mientras más alto es peor. La línea roja que se puede observar es el limite de $MRE = 25\%$ que es utilizado por la métrica de $PRED(25)$\relax }{figure.caption.65}{}}
\@writefile{lof}{\contentsline {figure}{\numberline {6.10}{\ignorespaces Comparaci\IeC {\'o}n de PRED(25). En rojo se encuentra el valor obtenido con atributos base, en azul con los atributos propuestos, en morado con la combinaci\IeC {\'o}n y en gris utilizando la metodolog\IeC {\'\i }a actual de la empresa (\textit  {Planning poker})\relax }}{97}{figure.caption.66}}
\newlabel{res9}{{6.10}{97}{Comparación de PRED(25). En rojo se encuentra el valor obtenido con atributos base, en azul con los atributos propuestos, en morado con la combinación y en gris utilizando la metodología actual de la empresa (\textit {Planning poker})\relax }{figure.caption.66}{}}
\@writefile{lof}{\contentsline {figure}{\numberline {6.11}{\ignorespaces Comparaci\IeC {\'o}n de MMRE. En rojo se encuentra el valor obtenido con atributos base, en azul con los atributos propuestos, en morado con la combinaci\IeC {\'o}n y en gris utilizando la metodolog\IeC {\'\i }a actual de la empresa (\textit  {Planning poker})\relax }}{98}{figure.caption.67}}
\newlabel{res10}{{6.11}{98}{Comparación de MMRE. En rojo se encuentra el valor obtenido con atributos base, en azul con los atributos propuestos, en morado con la combinación y en gris utilizando la metodología actual de la empresa (\textit {Planning poker})\relax }{figure.caption.67}{}}
\@writefile{toc}{\contentsline {subsection}{\numberline {6.2.3}Relaci\IeC {\'o}n entre error y cantidad de datos}{99}{subsection.6.2.3}}
\@writefile{lof}{\contentsline {figure}{\numberline {6.12}{\ignorespaces Correlaci\IeC {\'o}n entre tama\IeC {\~n}o de dataset y el error\relax }}{100}{figure.caption.69}}
\newlabel{res12}{{6.12}{100}{Correlación entre tamaño de dataset y el error\relax }{figure.caption.69}{}}
\@writefile{toc}{\contentsline {subsection}{\numberline {6.2.4}Distribuciones obtenidas}{101}{subsection.6.2.4}}
\@writefile{lof}{\contentsline {figure}{\numberline {6.13}{\ignorespaces Distribuciones del valor esperado del estimador para los proyectos de la iteraci\IeC {\'o}n 6 en particular utilizando solo los atributos base. La l\IeC {\'\i }nea vertical azul corresponde al valor entregado por el estimador al considerar el voto de todos los predictores base. La linea verde, por otro lado, corresponde al valor del esfuerzo real\relax }}{101}{figure.caption.70}}
\newlabel{res15}{{6.13}{101}{Distribuciones del valor esperado del estimador para los proyectos de la iteración 6 en particular utilizando solo los atributos base. La línea vertical azul corresponde al valor entregado por el estimador al considerar el voto de todos los predictores base. La linea verde, por otro lado, corresponde al valor del esfuerzo real\relax }{figure.caption.70}{}}
\@writefile{toc}{\contentsline {chapter}{Conclusiones}{103}{chapter*.71}}
\citation{heidenreich2013bandwidth}
\citation{POSPIESZNY2018184}
\bibstyle{plain}
\bibdata{bib/papers}
\bibcite{jira}{1}
\bibcite{ALAMI201662}{2}
\bibcite{awad2005comparison}{3}
\bibcite{azhar2013using}{4}
\bibcite{nassif_2016}{5}
\bibcite{bakalova2011comparative}{6}
\bibcite{balaji2012waterfall}{7}
\bibcite{agile_manifesto}{8}
\bibcite{bishop2006pattern}{9}
\@writefile{toc}{\contentsline {chapter}{Bibliograf\IeC {\'\i }a}{106}{chapter*.72}}
\bibcite{cocomo_2}{10}
\bibcite{bro2008cross}{11}
\bibcite{boehm_1981}{12}
\bibcite{chaosman}{13}
\bibcite{de2015project}{14}
\bibcite{morera_2017}{15}
\bibcite{ezghari2018uncertainty}{16}
\bibcite{bad_bagging}{17}
\bibcite{fernandez2014potential}{18}
\bibcite{fowler2018refactoring}{19}
\bibcite{friedman2010regularization}{20}
\bibcite{garofalo2011building}{21}
\bibcite{goodfellow2016deep}{22}
\bibcite{chaosreport}{23}
\bibcite{heidenreich2013bandwidth}{24}
\bibcite{james2013introduction}{25}
\bibcite{johnston1972econometric}{26}
\bibcite{pred25}{27}
\bibcite{kolodner2014case}{28}
\bibcite{kuhn2013applied}{29}
\bibcite{ralph_2015}{30}
\bibcite{lazarevic2014project}{31}
\bibcite{lopez2012software}{32}
\bibcite{jorgensen_2007}{33}
\bibcite{shepperd_2007}{34}
\bibcite{shepperd_2012}{35}
\bibcite{planning_poker_paper}{36}
\bibcite{agile_software_development}{37}
\bibcite{mcilroy1968mass}{38}
\bibcite{minku2013ensembles}{39}
\bibcite{mitchell1997machine}{40}
\bibcite{newman2015building}{41}
\bibcite{POSPIESZNY2018184}{42}
\bibcite{rifkin2007notes}{43}
\bibcite{delphi_technique}{44}
\bibcite{software_life_cycle_methods}{45}
\bibcite{pert_technique}{46}
\bibcite{svm_article}{47}
\bibcite{random_forest}{48}
\bibcite{toka2013accuracy}{49}
\bibcite{Trendowicz2014}{50}
\bibcite{WEN201241}{51}
\bibcite{wirth2000crisp}{52}
\bibcite{wysocki2011effective}{53}
\bibcite{zheng2018feature}{54}
\bibcite{ziauddin2012effort}{55}
\@writefile{toc}{\contentsline {chapter}{Anexos}{111}{chapter*.73}}
\newlabel{annex_effort_registry}{{A}{111}{Proceso de reporte de esfuerzo actual en la empresa Nursoft}{section.6.1}{}}
\@writefile{toc}{\contentsline {section}{\numberline {A}Proceso de reporte de esfuerzo actual en la empresa Nursoft }{111}{section.6.1}}
\@writefile{lof}{\contentsline {figure}{\numberline {A.1}{\ignorespaces Formulario utilizado en \textit  {Nursoft} para el reporte de esfuerzo\relax }}{112}{figure.caption.74}}
\newlabel{effort_report_form}{{A.1}{112}{Formulario utilizado en \textit {Nursoft} para el reporte de esfuerzo\relax }{figure.caption.74}{}}
\newlabel{data_characteristics}{{B}{112}{Características generales de los atributos propuestos luego del proceso de agregación}{section.6.2}{}}
\@writefile{toc}{\contentsline {section}{\numberline {B}Caracter\IeC {\'\i }sticas generales de los atributos propuestos luego del proceso de agregaci\IeC {\'o}n }{112}{section.6.2}}
\@writefile{lof}{\contentsline {figure}{\numberline {B.2}{\ignorespaces An\IeC {\'a}lisis de atributos nulos luego del proceso de agregaci\IeC {\'o}n\relax }}{112}{figure.caption.75}}
\newlabel{annex_nullity}{{B.2}{112}{Análisis de atributos nulos luego del proceso de agregación\relax }{figure.caption.75}{}}
\@writefile{lof}{\contentsline {figure}{\numberline {B.3}{\ignorespaces Frecuencia de aparici\IeC {\'o}n de los atributos propuestos. Por simplicidad, no se muestra la frecuencia de todos ellos\relax }}{113}{figure.caption.76}}
\newlabel{res1}{{B.3}{113}{Frecuencia de aparición de los atributos propuestos. Por simplicidad, no se muestra la frecuencia de todos ellos\relax }{figure.caption.76}{}}
\newlabel{train_set_behaviour}{{C}{114}{Comportamiento del tamaño del conjunto de entrenamiento a través del tiempo}{section.6.3}{}}
\@writefile{toc}{\contentsline {section}{\numberline {C}Comportamiento del tama\IeC {\~n}o del conjunto de entrenamiento a trav\IeC {\'e}s del tiempo }{114}{section.6.3}}
\@writefile{lof}{\contentsline {figure}{\numberline {C.4}{\ignorespaces Evoluci\IeC {\'o}n del tama\IeC {\~n}o del training set\relax }}{114}{figure.caption.77}}
\newlabel{res11}{{C.4}{114}{Evolución del tamaño del training set\relax }{figure.caption.77}{}}
