PWD /Users/felipemorales/repos/memoria/memoria/sty
INPUT /usr/local/texlive/2018/texmf.cnf
INPUT /usr/local/texlive/2018/texmf-dist/web2c/texmf.cnf
INPUT /usr/local/texlive/2018/texmf-var/web2c/pdftex/pdflatex.fmt
INPUT /Users/felipemorales/repos/memoria/memoria/sty/utfsm_tesis.sty
OUTPUT ./utfsm_tesis.log
INPUT /usr/local/texlive/2018/texmf-dist/tex/latex/base/ifthen.sty
INPUT /usr/local/texlive/2018/texmf-dist/tex/latex/base/ifthen.sty
INPUT /usr/local/texlive/2018/texmf-dist/tex/latex/base/latexsym.sty
INPUT /usr/local/texlive/2018/texmf-dist/tex/latex/base/latexsym.sty
INPUT /usr/local/texlive/2018/texmf-dist/tex/latex/tools/tabularx.sty
INPUT /usr/local/texlive/2018/texmf-dist/tex/latex/tools/tabularx.sty
INPUT /usr/local/texlive/2018/texmf-dist/tex/latex/tools/array.sty
INPUT /usr/local/texlive/2018/texmf-dist/tex/latex/tools/array.sty
INPUT /usr/local/texlive/2018/texmf-dist/tex/latex/base/ulasy.fd
INPUT /usr/local/texlive/2018/texmf-dist/tex/latex/base/ulasy.fd
INPUT /usr/local/texlive/2018/texmf-dist/fonts/map/fontname/texfonts.map
INPUT /usr/local/texlive/2018/texmf-dist/fonts/tfm/public/latex-fonts/lasy10.tfm
INPUT /usr/local/texlive/2018/texmf-dist/fonts/tfm/public/latex-fonts/lasy7.tfm
INPUT /usr/local/texlive/2018/texmf-dist/fonts/tfm/public/latex-fonts/lasy5.tfm
